%YAML 1.1
%TAG !u! tag:unity3d.com,2011:
--- !u!1045 &1
EditorBuildSettings:
  m_ObjectHideFlags: 0
  serializedVersion: 2
  m_Scenes:
  - enabled: 1
    path: Assets/Scene/ARQR.unity
    guid: f6b40b10baba5d449aebbabebaf73846
  m_configObjects:
    UnityEditor.XR.ARCore.ARCoreSettings: {fileID: 11400000, guid: f8ce26fe3bc69499b9be4b2378e97a94,
      type: 2}
    UnityEditor.XR.ARKit.ARKitSettings: {fileID: 11400000, guid: 98c79e8cc22674a89a95a3a90e2b70cb,
      type: 2}
    com.unity.xr.arkit.PlayerSettings: {fileID: 11400000, guid: 2d5fb8e61571b4e3897f221189089fd6,
      type: 2}
    com.unity.xr.management.loader_settings: {fileID: 11400000, guid: e2f869774b12e400996eb546603602e3,
      type: 2}
